Section 3 Get started | Exploring the utility of human genetic interactions for gene function predictions
…
## also append a list-column storing seed genes per term
df_pred <- df_pred %>% mutate(seed=map(pred, ~.x %>% filter(!is.na(seed)) %>% pull(gene)))

Gene-centric predictive score for each term is stored in a tibble df_pred, with 3 columns including 'term', 'pred' (a list-column containing details on gene-centric predictive score including 3 columns 'gene', 'score' for predictive score and 'seed' indicating whether or a seed gene), and 'seed' (seed genes).

df_pred
## # A tibble: 702 x 3
##    term                             pred                 seed         
##    <chr>                            <list>               <list>       
##  1 molecular_function               <tibble [3,198 × 3]> <chr [2,846]>
##  2 binding                          <tibble [3,198 × 3]> <chr [2,511]>
##  3 catalytic activity               <tibble [3,198 × 3]> <chr [1,092]>
##  4 transcription regulator activity <tibble [3,198 × 3]> <chr [326]>  
##  5 molecular function regulator     <tibble [3,198 × 3]> <chr [275]>  
##  6 molecular transducer activity    <tibble [3,198 × 3]> <chr [161]>  
##  7 transporter activity             <tibble [3,198 × 3]> <chr [150]>  
##  8 structural molecule activity     <tibble [3,198 × 3]> <chr [130]>  
##  9 translation regulator activity   <tibble [3,198 × 3]> <chr [37]>   
## 10 antioxidant activity             <tibble [3,198 × 3]> <chr [9]>    
## # … with 692 more rows

Evaluate prediction performance

## df_auc
df_term_pred <- df_term %>% inner_join(df_pred, by='term')
pb <- df_term_pred %>% nrow() %>% progress_estimated()
df_term_pred %>% mutate(auc=map2_dbl(member, pred, function(x,y){
    pb$tick()$print()
    res <- Fang::xClassifyPerf(prediction=y, GSP=x, GSN=NULL, verbose=F)$auroc
})) -> df_auc

The tibble df_auc contains term-centric performance measured by AUC (the column 'auc').

df_auc
## # A tibble: 702 x 10
##    term      id     namespace  distance member      n     ic pred   seed     auc
##    <chr>     <chr>  <chr>         <dbl> <list>  <dbl>  <dbl> <list> <list> <dbl>
##  1 molecula… GO:00… Molecular…        0 <chr [… 16335 0      <tibb… <chr … 0.641
##  2 binding   GO:00… Molecular…        1 <chr [… 13424 0.0852 <tibb… <chr … 0.638
##  3 catalyti… GO:00… Molecular…        1 <chr […  4870 0.526  <tibb… <chr … 0.607
##  4 transcri… GO:01… Molecular…        1 <chr […  1596 1.01   <tibb… <chr … 0.698
##  5 molecula… GO:00… Molecular…        1 <chr […  1451 1.05   <tibb… <chr … 0.514
##  6 molecula… GO:00… Molecular…        1 <chr […  1274 1.11   <tibb… <chr … 0.621
##  7 transpor… GO:00… Molecular…        1 <chr […  1010 1.21   <tibb… <chr … 0.620
##  8 structur… GO:00… Molecular…        1 <chr […   548 1.47   <tibb… <chr … 0.677
##  9 translat… GO:00… Molecular…        1 <chr […   121 2.13   <tibb… <chr … 0.647
## 10 antioxid… GO:00… Molecular…        1 <chr […    75 2.34   <tibb… <chr … 0.603
## # … with 692 more rows
…
