Section 2 Materials | Exploring the utility of human genetic interactions for gene function predictions
…
# then install packages from Bioconductor and CRAN
BiocManager::install(c("biobroom","dnet","ggrepel","gridExtra","limma","patchwork","remotes","tidyverse","osfr"), dependencies=T)

# can also install packages from GitHub
BiocManager::install("hfang-bristol/XGR")

Genetic interactions

We extracted human genetic interactions from BioGRID (version 3.5.179) involving 3102 genes (mapped to NCBI GeneID; the same hereinafter) and their 7856 interactions. This dataset was preprocessed into an igraph object (using the igraph package), saved as an RData-formatted file ig.BioGRID_genetic.RData, deposited at https://osf.io/gskpn).

org.Hs.egGOMF
## $info
## # A tibble: 4,156 x 6
##    name                     id        namespace       distance member          n
##    <chr>                    <chr>     <chr>              <dbl> <list>      <dbl>
##  1 molecular_function       GO:00036… Molecular Func…        0 <chr [16,3… 16335
##  2 binding                  GO:00054… Molecular Func…        1 <chr [13,4… 13424
##  3 catalytic activity       GO:00038… Molecular Func…        1 <chr [4,87…  4870
##  4 transcription regulator… GO:01401… Molecular Func…        1 <chr [1,59…  1596
##  5 molecular function regu… GO:00987… Molecular Func…        1 <chr [1,45…  1451
##  6 molecular transducer ac… GO:00600… Molecular Func…        1 <chr [1,27…  1274
##  7 transporter activity     GO:00052… Molecular Func…        1 <chr [1,01…  1010
##  8 structural molecule act… GO:00051… Molecular Func…        1 <chr [548]>   548
##  9 translation regulator a… GO:00451… Molecular Func…        1 <chr [121]>   121
## 10 antioxidant activity     GO:00162… Molecular Func…        1 <chr [75]>     75
## # … with 4,146 more rows
## 
## $stamp
## [1] "2020-05-18"
## 
## attr(,"class")
## [1] "SET"
…
